
VCFtools - UNKNOWN
(C) Adam Auton and Anthony Marcketta 2009

Parameters as interpreted:
	--vcf 3L_IiIsYs.vcf
	--keep Ii_indiv.txt
	--out Ii_indiv_3L_pi
	--window-pi 200000
	--window-pi-step 200000

Keeping individuals in 'keep' list
After filtering, kept 19 out of 55 Individuals
Outputting Windowed Nucleotide Diversity Statistics...
After filtering, kept 43681 out of a possible 43681 Sites
Run Time = 1.00 seconds
